…
    ## [1] 2.665212

``` r
sim1_dist <- function(a1, a2) {
    measure_distance(c(a1, a2), sim1)
}

models <- models %>% 
    mutate(dist = purrr::map2_dbl(a1, a2, sim1_dist))
models
```

    ## # A tibble: 250 x 3
    ##        a1     a2  dist
    ##     <dbl>  <dbl> <dbl>
    ##  1 -16.1  -1.93  43.8 
    ##  2 -13.5   0.142 28.8 
    ##  3  33.2  -4.87  21.9 
    ##  4  27.6   4.40  37.0 
    ##  5  -4.82  1.12  14.6 
    ##  6  12.2  -0.393  9.18
    ##  7  21.4  -3.04  18.3 
    ##  8   8.40 -0.154 10.4 
    ##  9 -19.7   4.27  13.5 
    ## 10 -11.2   4.38   7.50
    ## # … with 240 more rows
…
``` r
sim1 <- sim1 %>% 
    add_residuals(sim1_mod)
sim1
```

    ## # A tibble: 30 x 3
    ##        x     y    resid
    ##    <int> <dbl>    <dbl>
    ##  1     1  4.20 -2.07   
    ##  2     1  7.51  1.24   
    ##  3     1  2.13 -4.15   
    ##  4     2  8.99  0.665  
    ##  5     2 10.2   1.92   
    ##  6     2 11.3   2.97   
    ##  7     3  7.36 -3.02   
    ##  8     3 10.5   0.130  
    ##  9     3 10.5   0.136  
    ## 10     4 12.4   0.00763
    ## # … with 20 more rows
…
note ‘+’ in mod1 and ’\*’ in mod2

``` r
mod1 <- lm(y ~ x1 + x2, data = sim3)
mod2 <- lm(y ~ x1 * x2, data = sim3)

grid <- sim3 %>% 
    data_grid(x1, x2) %>% 
    gather_predictions(mod1, mod2)
grid
```

    ## # A tibble: 80 x 4
    ##    model    x1 x2     pred
    ##    <chr> <int> <fct> <dbl>
    ##  1 mod1      1 a      1.67
    ##  2 mod1      1 b      4.56
    ##  3 mod1      1 c      6.48
    ##  4 mod1      1 d      4.03
    ##  5 mod1      2 a      1.48
    ##  6 mod1      2 b      4.37
    ##  7 mod1      2 c      6.28
    ##  8 mod1      2 d      3.84
    ##  9 mod1      3 a      1.28
    ## 10 mod1      3 b      4.17
    ## # … with 70 more rows
…
``` r
mod1 <- lm(y ~ x1 + x2, data = sim4)
mod2 <- lm(y ~ x1 * x2, data = sim4)

grid <- sim4 %>% 
    data_grid(
        x1 = seq_range(x1, 5), 
        x2 = seq_range(x2, 5) 
    ) %>% 
    gather_predictions(mod1, mod2)
grid
```

    ## # A tibble: 50 x 4
    ##    model    x1    x2   pred
    ##    <chr> <dbl> <dbl>  <dbl>
    ##  1 mod1   -1    -1    0.996
    ##  2 mod1   -1    -0.5 -0.395
    ##  3 mod1   -1     0   -1.79 
    ##  4 mod1   -1     0.5 -3.18 
    ##  5 mod1   -1     1   -4.57 
    ##  6 mod1   -0.5  -1    1.91 
    ##  7 mod1   -0.5  -0.5  0.516
    ##  8 mod1   -0.5   0   -0.875
    ##  9 mod1   -0.5   0.5 -2.27 
    ## 10 mod1   -0.5   1   -3.66 
    ## # … with 40 more rows
…
exactly the same

Use model\_matrix() to explore the equations generated for the models I
fit to sim3 and sim4. Why is \* a good shorthand for interaction?

``` r
model_matrix(y ~ x1 * x2, data = sim3)
```

    ## # A tibble: 240 x 8
    ##    `(Intercept)`    x1   x2b   x2c   x2d `x1:x2b` `x1:x2c` `x1:x2d`
    ##            <dbl> <dbl> <dbl> <dbl> <dbl>    <dbl>    <dbl>    <dbl>
    ##  1             1     1     0     0     0        0        0        0
    ##  2             1     1     0     0     0        0        0        0
    ##  3             1     1     0     0     0        0        0        0
    ##  4             1     1     1     0     0        1        0        0
    ##  5             1     1     1     0     0        1        0        0
    ##  6             1     1     1     0     0        1        0        0
    ##  7             1     1     0     1     0        0        1        0
    ##  8             1     1     0     1     0        0        1        0
    ##  9             1     1     0     1     0        0        1        0
    ## 10             1     1     0     0     1        0        0        1
    ## # … with 230 more rows

``` r
model_matrix(y ~ x1 * x2, data = sim4)
```

    ## # A tibble: 600 x 4
    ##    `(Intercept)`    x1     x2 `x1:x2`
    ##            <dbl> <dbl>  <dbl>   <dbl>
    ##  1             1    -1 -1       1    
    ##  2             1    -1 -1       1    
    ##  3             1    -1 -1       1    
    ##  4             1    -1 -0.778   0.778
    ##  5             1    -1 -0.778   0.778
    ##  6             1    -1 -0.778   0.778
    ##  7             1    -1 -0.556   0.556
    ##  8             1    -1 -0.556   0.556
    ##  9             1    -1 -0.556   0.556
    ## 10             1    -1 -0.333   0.333
    ## # … with 590 more rows
…
predictions

``` r
grid <- sim4 %>% 
    data_grid(
        x1 = seq_range(x1, 5), 
        x2 = seq_range(x2, 5) 
    ) %>% 
    gather_predictions(mod1, mod2)
grid
```

    ## # A tibble: 50 x 4
    ##    model    x1    x2   pred
    ##    <chr> <dbl> <dbl>  <dbl>
    ##  1 mod1   -1    -1    0.996
    ##  2 mod1   -1    -0.5 -0.395
    ##  3 mod1   -1     0   -1.79 
    ##  4 mod1   -1     0.5 -3.18 
    ##  5 mod1   -1     1   -4.57 
    ##  6 mod1   -0.5  -1    1.91 
    ##  7 mod1   -0.5  -0.5  0.516
    ##  8 mod1   -0.5   0   -0.875
    ##  9 mod1   -0.5   0.5 -2.27 
    ## 10 mod1   -0.5   1   -3.66 
    ## # … with 40 more rows

residuals

``` r
sim4 <- sim4 %>% 
    gather_residuals(mod1, mod2)
sim4
```

    ## # A tibble: 1,200 x 6
    ##    model    x1     x2   rep       y  resid
    ##    <chr> <dbl>  <dbl> <int>   <dbl>  <dbl>
    ##  1 mod1     -1 -1         1  4.25    3.25 
    ##  2 mod1     -1 -1         2  1.21    0.210
    ##  3 mod1     -1 -1         3  0.353  -0.643
    ##  4 mod1     -1 -0.778     1 -0.0467 -0.425
    ##  5 mod1     -1 -0.778     2  4.64    4.26 
    ##  6 mod1     -1 -0.778     3  1.38    0.999
    ##  7 mod1     -1 -0.556     1  0.975   1.22 
    ##  8 mod1     -1 -0.556     2  2.50    2.74 
    ##  9 mod1     -1 -0.556     3  2.70    2.95 
    ## 10 mod1     -1 -0.333     1  0.558   1.42 
    ## # … with 1,190 more rows
…
