…
Independent 4119

Which relig does denom (denomination) apply to? How can you find out
with a table? How can you find out with a visualization?

``` r
gss_cat %>% 
    count(relig, denom)
```

    ## # A tibble: 47 x 3
    ##    relig                   denom               n
    ##    <fct>                   <fct>           <int>
    ##  1 No answer               No answer          93
    ##  2 Don't know              Not applicable     15
    ##  3 Inter-nondenominational Not applicable    109
    ##  4 Native american         Not applicable     23
    ##  5 Christian               No answer           2
    ##  6 Christian               Don't know         11
    ##  7 Christian               No denomination   452
    ##  8 Christian               Not applicable    224
    ##  9 Orthodox-christian      Not applicable     95
    ## 10 Moslem/islam            Not applicable    104
    ## # … with 37 more rows
…
