R4DS Wrangle Section: Dates Chapter
================
H. David Shea
22 January 2021

## 16.2 creating date/times

``` r
flights %>% 
    select(year, month, day, hour, minute) %>% 
    mutate(departure = make_datetime(year, month, day, hour, minute))
```

    ## # A tibble: 336,776 x 6
    ##     year month   day  hour minute departure          
    ##    <int> <int> <int> <dbl>  <dbl> <dttm>             
    ##  1  2013     1     1     5     15 2013-01-01 05:15:00
    ##  2  2013     1     1     5     29 2013-01-01 05:29:00
    ##  3  2013     1     1     5     40 2013-01-01 05:40:00
    ##  4  2013     1     1     5     45 2013-01-01 05:45:00
    ##  5  2013     1     1     6      0 2013-01-01 06:00:00
    ##  6  2013     1     1     5     58 2013-01-01 05:58:00
    ##  7  2013     1     1     6      0 2013-01-01 06:00:00
    ##  8  2013     1     1     6      0 2013-01-01 06:00:00
    ##  9  2013     1     1     6      0 2013-01-01 06:00:00
    ## 10  2013     1     1     6      0 2013-01-01 06:00:00
    ## # … with 336,766 more rows
…
``` r
flights_dt
```

    ## # A tibble: 328,063 x 9
    ##    origin dest  dep_delay arr_delay dep_time            sched_dep_time     
    ##    <chr>  <chr>     <dbl>     <dbl> <dttm>              <dttm>             
    ##  1 EWR    IAH           2        11 2013-01-01 05:17:00 2013-01-01 05:15:00
    ##  2 LGA    IAH           4        20 2013-01-01 05:33:00 2013-01-01 05:29:00
    ##  3 JFK    MIA           2        33 2013-01-01 05:42:00 2013-01-01 05:40:00
    ##  4 JFK    BQN          -1       -18 2013-01-01 05:44:00 2013-01-01 05:45:00
    ##  5 LGA    ATL          -6       -25 2013-01-01 05:54:00 2013-01-01 06:00:00
    ##  6 EWR    ORD          -4        12 2013-01-01 05:54:00 2013-01-01 05:58:00
    ##  7 EWR    FLL          -5        19 2013-01-01 05:55:00 2013-01-01 06:00:00
    ##  8 LGA    IAD          -3       -14 2013-01-01 05:57:00 2013-01-01 06:00:00
    ##  9 JFK    MCO          -3        -8 2013-01-01 05:57:00 2013-01-01 06:00:00
    ## 10 LGA    ORD          -2         8 2013-01-01 05:58:00 2013-01-01 06:00:00
    ## # … with 328,053 more rows, and 3 more variables: arr_time <dttm>,
    ## #   sched_arr_time <dttm>, air_time <dbl>
…
``` r
flights_dt %>% 
    select(dep_time) %>%
    mutate(dep_week = floor_date(dep_time, "week"))
```

    ## # A tibble: 328,063 x 2
    ##    dep_time            dep_week           
    ##    <dttm>              <dttm>             
    ##  1 2013-01-01 05:17:00 2012-12-30 00:00:00
    ##  2 2013-01-01 05:33:00 2012-12-30 00:00:00
    ##  3 2013-01-01 05:42:00 2012-12-30 00:00:00
    ##  4 2013-01-01 05:44:00 2012-12-30 00:00:00
    ##  5 2013-01-01 05:54:00 2012-12-30 00:00:00
    ##  6 2013-01-01 05:54:00 2012-12-30 00:00:00
    ##  7 2013-01-01 05:55:00 2012-12-30 00:00:00
    ##  8 2013-01-01 05:57:00 2012-12-30 00:00:00
    ##  9 2013-01-01 05:57:00 2012-12-30 00:00:00
    ## 10 2013-01-01 05:58:00 2012-12-30 00:00:00
    ## # … with 328,053 more rows
…
        ) %>%
    select(-contains("sched")) %>%
    left_join(
        select(mutate(airports, tz_dst = tz), faa, tz_dst), 
        by = c("dest" = "faa")
    ) %>%
    left_join(
        select(mutate(airports, tz_arr = tz), faa, tz_arr), 
        by = c("origin" = "faa")
    ) %>%
    filter(tz_dst != tz_arr) %>%
    select(-contains("sched"), -contains("_delay"), -dep_time, -arr_time)
```

    ## # A tibble: 133,894 x 7
    ##    origin dest  air_time arr_dep_diff  var_ tz_dst tz_arr
    ##    <chr>  <chr>    <dbl>        <dbl> <dbl>  <dbl>  <dbl>
    ##  1 EWR    IAH        227          193    34     -6     -5
    ##  2 LGA    IAH        227          197    30     -6     -5
    ##  3 EWR    ORD        150          106    44     -6     -5
    ##  4 LGA    ORD        138          115    23     -6     -5
    ##  5 JFK    LAX        345          206   139     -8     -5
    ##  6 EWR    SFO        361          205   156     -8     -5
    ##  7 LGA    DFW        257          222    35     -6     -5
    ##  8 EWR    LAS        337          175   162     -8     -5
    ##  9 LGA    MSP        170          130    40     -6     -5
    ## 10 EWR    ORD        139          119    20     -6     -5
    ## # … with 133,884 more rows
…
